^C:\USERS\NOAM\DOCUMENTS\PROJECTS\PROJECTEULER23 - C STYLE\X64\RELEASE\ABUNDANTVECTOR.OBJ|C:\USERS\NOAM\DOCUMENTS\PROJECTS\PROJECTEULER23 - C STYLE\X64\RELEASE\MAIN.OBJ
C:\USERS\NOAM\DOCUMENTS\PROJECTS\PROJECTEULER23 - C STYLE\X64\RELEASE\PROJECTEULER23.EXE
C:\USERS\NOAM\DOCUMENTS\PROJECTS\PROJECTEULER23 - C STYLE\X64\RELEASE\PROJECTEULER23.IPDB
C:\USERS\NOAM\DOCUMENTS\PROJECTS\PROJECTEULER23 - C STYLE\X64\RELEASE\PROJECTEULER23.IOBJ
C:\USERS\NOAM\DOCUMENTS\PROJECTS\PROJECTEULER23 - C STYLE\X64\RELEASE\PROJECTEULER23.PDB
