^C:\USERS\NOAM\DOCUMENTS\PROJECTS\PROJECTEULER23\ABUNDANT.CPP|C:\USERS\NOAM\DOCUMENTS\PROJECTS\PROJECTEULER23\ABUNDANTVECTOR.CPP|C:\USERS\NOAM\DOCUMENTS\PROJECTS\PROJECTEULER23\MAIN.CPP
C:\USERS\NOAM\DOCUMENTS\PROJECTS\PROJECTEULER23\RELEASE\VC140.PDB
C:\USERS\NOAM\DOCUMENTS\PROJECTS\PROJECTEULER23\RELEASE\MAIN.OBJ
C:\USERS\NOAM\DOCUMENTS\PROJECTS\PROJECTEULER23\RELEASE\ABUNDANTVECTOR.OBJ
C:\USERS\NOAM\DOCUMENTS\PROJECTS\PROJECTEULER23\RELEASE\ABUNDANT.OBJ
^C:\USERS\NOAM\DOCUMENTS\PROJECTS\PROJECTEULER23\ABUNDANT.CPP
C:\USERS\NOAM\DOCUMENTS\PROJECTS\PROJECTEULER23\RELEASE\VC140.PDB
^C:\USERS\NOAM\DOCUMENTS\PROJECTS\PROJECTEULER23\MAIN.CPP
C:\USERS\NOAM\DOCUMENTS\PROJECTS\PROJECTEULER23\RELEASE\VC140.PDB
^C:\USERS\NOAM\DOCUMENTS\PROJECTS\PROJECTEULER23\ABUNDANTVECTOR.CPP
C:\USERS\NOAM\DOCUMENTS\PROJECTS\PROJECTEULER23\RELEASE\VC140.PDB
C:\USERS\NOAM\DOCUMENTS\PROJECTS\PROJECTEULER23\RELEASE\ABUNDANTVECTOR.OBJ
