^C:\USERS\NOAM\DOCUMENTS\PROJECTS\PROJECTEULER23\ABUNDANT.CPP
/c /Zi /nologo /W3 /WX- /sdl /O2 /Oi /GL /D NDEBUG /D _CONSOLE /D _UNICODE /D UNICODE /Gm- /EHsc /MD /GS /Gy /fp:precise /Zc:wchar_t /Zc:forScope /Zc:inline /Fo"X64\RELEASE\\" /Fd"X64\RELEASE\VC140.PDB" /Gd /TP C:\USERS\NOAM\DOCUMENTS\PROJECTS\PROJECTEULER23\ABUNDANT.CPP
^C:\USERS\NOAM\DOCUMENTS\PROJECTS\PROJECTEULER23\ABUNDANTVECTOR.CPP
/c /Zi /nologo /W3 /WX- /sdl /O2 /Oi /GL /D NDEBUG /D _CONSOLE /D _UNICODE /D UNICODE /Gm- /EHsc /MD /GS /Gy /fp:precise /Zc:wchar_t /Zc:forScope /Zc:inline /Fo"X64\RELEASE\\" /Fd"X64\RELEASE\VC140.PDB" /Gd /TP C:\USERS\NOAM\DOCUMENTS\PROJECTS\PROJECTEULER23\ABUNDANTVECTOR.CPP
^C:\USERS\NOAM\DOCUMENTS\PROJECTS\PROJECTEULER23\MAIN.CPP
/c /Zi /nologo /W3 /WX- /sdl /O2 /Oi /GL /D NDEBUG /D _CONSOLE /D _UNICODE /D UNICODE /Gm- /EHsc /MD /GS /Gy /fp:precise /Zc:wchar_t /Zc:forScope /Zc:inline /Fo"X64\RELEASE\\" /Fd"X64\RELEASE\VC140.PDB" /Gd /TP C:\USERS\NOAM\DOCUMENTS\PROJECTS\PROJECTEULER23\MAIN.CPP
