^C:\USERS\NOAM\DOCUMENTS\PROJECTS\PROJECTEULER23\ABUNDANT.CPP
/c /ZI /nologo /W3 /WX- /sdl /Od /Oy- /D WIN32 /D _DEBUG /D _CONSOLE /D _UNICODE /D UNICODE /Gm /EHsc /RTC1 /MDd /GS /fp:precise /Zc:wchar_t /Zc:forScope /Zc:inline /Fo"DEBUG\\" /Fd"DEBUG\VC140.PDB" /Gd /TP /analyze- C:\USERS\NOAM\DOCUMENTS\PROJECTS\PROJECTEULER23\ABUNDANT.CPP
^C:\USERS\NOAM\DOCUMENTS\PROJECTS\PROJECTEULER23\ABUNDANTVECTOR.CPP
/c /ZI /nologo /W3 /WX- /sdl /Od /Oy- /D WIN32 /D _DEBUG /D _CONSOLE /D _UNICODE /D UNICODE /Gm /EHsc /RTC1 /MDd /GS /fp:precise /Zc:wchar_t /Zc:forScope /Zc:inline /Fo"DEBUG\\" /Fd"DEBUG\VC140.PDB" /Gd /TP /analyze- C:\USERS\NOAM\DOCUMENTS\PROJECTS\PROJECTEULER23\ABUNDANTVECTOR.CPP
^C:\USERS\NOAM\DOCUMENTS\PROJECTS\PROJECTEULER23\MAIN.CPP
/c /ZI /nologo /W3 /WX- /sdl /Od /Oy- /D WIN32 /D _DEBUG /D _CONSOLE /D _UNICODE /D UNICODE /Gm /EHsc /RTC1 /MDd /GS /fp:precise /Zc:wchar_t /Zc:forScope /Zc:inline /Fo"DEBUG\\" /Fd"DEBUG\VC140.PDB" /Gd /TP /analyze- C:\USERS\NOAM\DOCUMENTS\PROJECTS\PROJECTEULER23\MAIN.CPP
